dump.vcd
$date
	Tue Nov 25 06:16:56 2025
$end
$version
	QuestaSim Version 2024.3_1
$end
$timescale
	1ns
$end

$scope module top $end
$var reg 1 ! clock $end

$scope module alu_sva $end

$scope begin a_add_zero $end
$upscope $end

$scope begin a_no_xz_cmd $end
$upscope $end

$scope begin a_no_xz_result $end
$upscope $end

$scope begin a_opcode_range $end
$upscope $end

$scope begin a_reset_clear $end
$upscope $end

$scope begin a_reset_stable $end
$upscope $end
$upscope $end

$scope module dut1 $end
$var wire 1 " clock $end
$var wire 4 # cmd [3:0] $end
$var wire 32 $ in1 [31:0] $end
$var wire 32 % in2 [31:0] $end
$var wire 1 & reset $end
$var reg 32 ' result [31:0] $end
$upscope $end

$scope module dut_if1 $end
$var reg 4 ( cmd [3:0] $end
$var reg 32 ) in1 [31:0] $end
$var reg 32 * in2 [31:0] $end
$var reg 1 + reset $end
$var reg 32 , result [31:0] $end
$var reg 1 - clock $end
$upscope $end
$upscope $end
$enddefinitions $end
#0
$dumpvars
x&
bx $
bx %
bx #
0!
0"
bx '
bx (
bx )
bx *
x+
bx ,
0-
$end
#5
1!
1-
1"
#10
0!
0-
0"
#15
1!
1-
1"
#20
0!
0-
0"
#25
1!
1-
1"
#26
0+
0&
#30
0!
0-
0"
#35
1!
1-
1"
#40
0!
0-
0"
#45
1!
1-
1"
#50
0!
0-
0"
#55
1!
1-
1"
b1111111111111111111111111111111 )
b1 *
b10 (
b10 #
b1 %
b1111111111111111111111111111111 $
#60
0!
0-
0"
#65
1!
1-
1"
b10000000000000000000000000000000 '
b0 )
b100 (
b100 #
b0 $
b10000000000000000000000000000000 ,
#70
0!
0-
0"
#75
1!
1-
1"
b11111111111111111111111111111111 '
b1 )
b11111 *
b11 (
b11 #
b11111 %
b1 $
b11111111111111111111111111111111 ,
#80
0!
0-
0"
#85
1!
1-
1"
b10000000000000000000000000000000 '
b10000000000000000000000000000000 )
b101 (
b101 #
b10000000000000000000000000000000 $
b10000000000000000000000000000000 ,
#90
0!
0-
0"
#95
1!
1-
1"
b1 '
b1111111111111111 )
b1111111111111111 *
b110 (
b110 #
b1111111111111111 %
b1111111111111111 $
b1 ,
#100
0!
0-
0"
#105
1!
1-
1"
b11111111111111100000000000000001 '
b0 )
b11111111111111111111111111111111 *
b0 (
b0 #
b11111111111111111111111111111111 %
b0 $
b11111111111111100000000000000001 ,
#110
0!
0-
0"
#115
1!
1-
1"
b0 '
b11111111111111111111111111111111 )
b111 (
b111 #
b11111111111111111111111111111111 $
b0 ,
#120
0!
0-
0"
#125
1!
1-
1"
b10010001101000101011001111000 )
b10010001101000101011001111000 *
b1000 (
b1000 #
b10010001101000101011001111000 %
b10010001101000101011001111000 $
#130
0!
0-
0"
#135
1!
1-
1"
b1111111111111111111111111111111 )
b10000000000000000000000000000000 *
b0 (
b0 #
b10000000000000000000000000000000 %
b1111111111111111111111111111111 $
#140
0!
0-
0"
#145
1!
1-
1"
b10000000000000000000000000000000 )
b1111111111111111111111111111111 *
b100 (
b100 #
b1111111111111111111111111111111 %
b10000000000000000000000000000000 $
#150
0!
0-
0"
#155
1!
1-
1"
b1 '
b0 )
b110 (
b110 #
b0 $
b1 ,
#160
0!
0-
0"
#165
1!
1-
1"
b0 '
b1111111111111111111111111111111 )
b10000000000000000000000000000000 *
b1000 (
b1000 #
b10000000000000000000000000000000 %
b1111111111111111111111111111111 $
b0 ,
#170
0!
0-
0"
#175
1!
1-
1"
b1 '
b100000 )
b1001000 *
b0 (
b0 #
b1001000 %
b100000 $
b1 ,
#180
0!
0-
0"
#185
1!
1-
1"
b0 '
b10000010 )
b1110000 *
b1 (
b1 #
b1110000 %
b10000010 $
b0 ,
#190
0!
0-
0"
#195
1!
1-
1"
b11110010 '
b1110100 )
b10011011 *
b10011011 %
b1110100 $
b11110010 ,
#200
0!
0-
0"
#205
1!
1-
1"
b11111111 '
b1011000 )
b1010011 *
b111 (
b111 #
b1010011 %
b1011000 $
b11111111 ,
#210
0!
0-
0"
#215
1!
1-
1"
b1011 '
b1111110 )
b110 *
b1 (
b1 #
b110 %
b1111110 $
b1011 ,
#220
0!
0-
0"
#225
1!
1-
1"
b1111110 '
b111100 )
b1011111 *
b0 (
b0 #
b1011111 %
b111100 $
b1111110 ,
#230
0!
0-
0"
#235
1!
1-
1"
b11100 '
b101110 )
b10010 *
b111 (
b111 #
b10010 %
b101110 $
b11100 ,
#240
0!
0-
0"
#245
1!
1-
1"
b111100 '
b11101001 )
b10111010 *
b10 (
b10 #
b10111010 %
b11101001 $
b111100 ,
#250
0!
0-
0"
#255
1!
1-
1"
b110100011 '
b11111111111111111111111111111111 )
b10001 *
b11 (
b11 #
b10001 %
b11111111111111111111111111111111 $
b110100011 ,
#260
0!
0-
0"
#265
1!
1-
1"
b11111111111111100000000000000000 '
b11000010 )
b1110101 *
b111 (
b111 #
b1110101 %
b11000010 $
b11111111111111100000000000000000 ,
#270
0!
0-
0"
#275
1!
1-
1"
b10110111 '
b1011011 )
b1001 *
b101 (
b101 #
b1001 %
b1011011 $
b10110111 ,
#280
0!
0-
0"
#285
1!
1-
1"
b0 '
b11000 )
b11111001 *
b100 (
b100 #
b11111001 %
b11000 $
b0 ,
#290
0!
0-
0"
#295
1!
1-
1"
b11111111111111111111111100011111 '
b11111001 )
b11111110 *
b11111110 %
b11111001 $
b11111111111111111111111100011111 ,
#300
0!
0-
0"
#305
1!
1-
1"
b11111111111111111111111111111011 '
b11100100 )
b1000 *
b0 (
b0 #
b1000 %
b11100100 $
b11111111111111111111111111111011 ,
#310
0!
0-
0"
#315
1!
1-
1"
b0 '
b11000010 )
b10100111 *
b10100111 %
b11000010 $
b0 ,
#320
0!
0-
0"
#325
1!
1-
1"
b10000010 '
b11111101 )
b1110001 *
b10 (
b10 #
b1110001 %
b11111101 $
b10000010 ,
#330
0!
0-
0"
#335
1!
1-
1"
b101101110 '
b1000 )
b11100000 *
b11100000 %
b1000 $
b101101110 ,
#340
0!
0-
0"
#345
1!
1-
1"
b11101000 '
b11000110 )
b11011 *
b11011 %
b11000110 $
b11101000 ,
#350
0!
0-
0"
#355
1!
1-
1"
b11100001 '
b11101010 )
b10111100 *
b100 (
b100 #
b10111100 %
b11101010 $
b11100001 ,
#360
0!
0-
0"
#365
1!
1-
1"
b101110 '
b11000001 *
b111 (
b111 #
b11000001 %
b101110 ,
#370
0!
0-
0"
#375
1!
1-
1"
b101011 '
b11010000 )
b10100011 *
b100 (
b100 #
b10100011 %
b11010000 $
b101011 ,
#380
0!
0-
0"
#385
1!
1-
1"
b101101 '
b11000110 )
b10101100 *
b1 (
b1 #
b10101100 %
b11000110 $
b101101 ,
#390
0!
0-
0"
#395
1!
1-
1"
b11101110 '
b10011111 )
b11010111 *
b0 (
b0 #
b11010111 %
b10011111 $
b11101110 ,
#400
0!
0-
0"
#405
1!
1-
1"
b10010111 '
b1100000 )
b11001110 *
b110 (
b110 #
b11001110 %
b1100000 $
b10010111 ,
#410
0!
0-
0"
#415
1!
1-
1"
b100110101000000 '
b11011010 )
b10000111 *
b10 (
b10 #
b10000111 %
b11011010 $
b100110101000000 ,
#420
0!
0-
0"
#425
1!
1-
1"
b101100001 '
b1010000 )
b10110000 *
b0 (
b0 #
b10110000 %
b1010000 $
b101100001 ,
#430
0!
0-
0"
#435
1!
1-
1"
b10000 '
b1101100 )
b1010001 *
b10 (
b10 #
b1010001 %
b1101100 $
b10000 ,
#440
0!
0-
0"
#445
1!
1-
1"
b10111101 '
b100010 )
b111101 *
b0 (
b0 #
b111101 %
b100010 $
b10111101 ,
#450
0!
0-
0"
#455
1!
1-
1"
b100000 '
b10010 )
b11001 *
b1000 (
b1000 #
b11001 %
b10010 $
b100000 ,
#460
0!
0-
0"
#465
1!
1-
1"
b1 '
b10001101 )
b11111111111111111111111111111111 *
b0 (
b0 #
b11111111111111111111111111111111 %
b10001101 $
b1 ,
#470
0!
0-
0"
#475
1!
1-
1"
b10001101 '
b10001011 )
b1101 *
b1101 %
b10001011 $
b10001101 ,
#480
0!
0-
0"
#485
1!
1-
1"
b1001 '
b1011001 )
b10110100 *
b10110100 %
b1011001 $
b1001 ,
#490
0!
0-
0"
#495
1!
1-
1"
b10000 '
b1101111 )
b10011101 *
b1 (
b1 #
b10011101 %
b1101111 $
b10000 ,
#500
0!
0-
0"
#505
1!
1-
1"
b11111111 '
b10100010 )
b11001111 *
b1000 (
b1000 #
b11001111 %
b10100010 $
b11111111 ,
#510
0!
0-
0"
#515
1!
1-
1"
b1 '
b10111010 )
b100110 *
b100 (
b100 #
b100110 %
b10111010 $
b1 ,
#520
0!
0-
0"
#525
1!
1-
1"
b10010100 '
b1111010 )
b11100001 *
b0 (
b0 #
b11100001 %
b1111010 $
b10010100 ,
#530
0!
0-
0"
#535
1!
1-
1"
b1100000 '
b11111111111111111111111111111111 )
b11000100 *
b11000100 %
b11111111111111111111111111111111 $
b1100000 ,
#540
0!
0-
0"
#545
1!
1-
1"
b11000100 '
b1101001 )
b10100000 *
b100 (
b100 #
b10100000 %
b1101001 $
b11000100 ,
#550
0!
0-
0"
#555
1!
1-
1"
b11111111111111111111111111001001 '
b10101101 )
b111110 *
b111 (
b111 #
b111110 %
b10101101 $
b11111111111111111111111111001001 ,
#560
0!
0-
0"
#565
1!
1-
1"
b10010011 '
b1011101 )
b1000011 *
b100 (
b100 #
b1000011 %
b1011101 $
b10010011 ,
#570
0!
0-
0"
#575
1!
1-
1"
b11010 '
b10010101 )
b11001 *
b101 (
b101 #
b11001 %
b10010101 $
b11010 ,
#580
0!
0-
0"
#585
1!
1-
1"
b0 '
b110 )
b11101011 *
b111 (
b111 #
b11101011 %
b110 $
b0 ,
#590
0!
0-
0"
#595
1!
1-
1"
b11101101 '
b101011 )
b11001010 *
b110 (
b110 #
b11001010 %
b101011 $
b11101101 ,
#600
0!
0-
0"
#605
1!
1-
1"
b10000111101110 '
b1001000 )
b101100 *
b100 (
b100 #
b101100 %
b1001000 $
b10000111101110 ,
#610
0!
0-
0"
#615
1!
1-
1"
b11100 '
b1 )
b1111 *
b111 (
b111 #
b1111 %
b1 $
b11100 ,
#620
0!
0-
0"
#625
1!
1-
1"
b1110 '
b11110110 )
b10111 *
b1 (
b1 #
b10111 %
b11110110 $
b1110 ,
#630
0!
0-
0"
#635
1!
1-
1"
b11110111 '
b11010111 )
b10110 *
b110 (
b110 #
b10110 %
b11010111 $
b11110111 ,
#640
0!
0-
0"
#645
1!
1-
1"
b1001001111010 '
b100 )
b11011100 *
b100 (
b100 #
b11011100 %
b100 $
b1001001111010 ,
#650
0!
0-
0"
#655
1!
1-
1"
b11111111111111111111111100101000 '
b10000010 )
b10001101 *
b0 (
b0 #
b10001101 %
b10000010 $
b11111111111111111111111100101000 ,
#660
0!
0-
0"
#665
1!
1-
1"
b10000000 '
b1010011 )
b10100000 *
b1000 (
b1000 #
b10100000 %
b1010011 $
b10000000 ,
#670
0!
0-
0"
#675
1!
1-
1"
b1 '
b11001111 )
b11101001 *
b1 (
b1 #
b11101001 %
b11001111 $
b1 ,
#680
0!
0-
0"
#685
1!
1-
1"
b11101111 '
b100100 )
b1110011 *
b1000 (
b1000 #
b1110011 %
b100100 $
b11101111 ,
#690
0!
0-
0"
#695
1!
1-
1"
b1 '
b11111101 )
b11000110 *
b111 (
b111 #
b11000110 %
b11111101 $
b1 ,
#700
0!
0-
0"
#705
1!
1-
1"
b111011 '
b11111000 )
b11101000 *
b0 (
b0 #
b11101000 %
b11111000 $
b111011 ,
#710
0!
0-
0"
#715
1!
1-
1"
b11101000 '
b111001 )
b11100000 *
b100 (
b100 #
b11100000 %
b111001 $
b11101000 ,
#720
0!
0-
0"
#725
1!
1-
1"
b11111111111111111111111101011001 '
b111101 )
b1110101 *
b1 (
b1 #
b1110101 %
b111101 $
b11111111111111111111111101011001 ,
#730
0!
0-
0"
#735
1!
1-
1"
b1111101 '
b11011011 )
b10001000 *
b0 (
b0 #
b10001000 %
b11011011 $
b1111101 ,
#740
0!
0-
0"
#745
1!
1-
1"
b10001000 '
b111 )
b1100 *
b1 (
b1 #
b1100 %
b111 $
b10001000 ,
#750
0!
0-
0"
#755
1!
1-
1"
b1111 '
b11110100 )
b1010010 *
b1010010 %
b11110100 $
b1111 ,
#760
0!
0-
0"
#765
1!
1-
1"
b11110110 '
b1001100 )
b110000 *
b111 (
b111 #
b110000 %
b1001100 $
b11110110 ,
#770
0!
0-
0"
#775
1!
1-
1"
b1111100 '
b1000111 )
b11010011 *
b10 (
b10 #
b11010011 %
b1000111 $
b1111100 ,
#780
0!
0-
0"
#785
1!
1-
1"
b100011010 '
b10110101 )
b10000000 *
b0 (
b0 #
b10000000 %
b10110101 $
b100011010 ,
#790
0!
0-
0"
#795
1!
1-
1"
b10000000 '
b10101000 )
b1001001 *
b110 (
b110 #
b1001001 %
b10101000 $
b10000000 ,
#800
0!
0-
0"
#805
1!
1-
1"
b10111111101000 '
b1010110 )
b11001100 *
b111 (
b111 #
b11001100 %
b1010110 $
b10111111101000 ,
#810
0!
0-
0"
#815
1!
1-
1"
b10011010 '
b10010100 )
b1010101 *
b1000 (
b1000 #
b1010101 %
b10010100 $
b10011010 ,
#820
0!
0-
0"
#825
1!
1-
1"
b0 '
b10100 )
b10010101 *
b111 (
b111 #
b10010101 %
b10100 $
b0 ,
#830
0!
0-
0"
#835
1!
1-
1"
b10000001 '
b111100 )
b1100000 *
b100 (
b100 #
b1100000 %
b111100 $
b10000001 ,
#840
0!
0-
0"
#845
1!
1-
1"
b11111111111111111111111111011100 '
b10011110 )
b11000001 *
b10 (
b10 #
b11000001 %
b10011110 $
b11111111111111111111111111011100 ,
#850
0!
0-
0"
#855
1!
1-
1"
b101011111 '
b111000 )
b0 *
b1 (
b1 #
b0 %
b111000 $
b101011111 ,
#860
0!
0-
0"
#865
1!
1-
1"
b111000 '
b1001000 )
b11001010 *
b1000 (
b1000 #
b11001010 %
b1001000 $
b111000 ,
#870
0!
0-
0"
#875
1!
1-
1"
b1 '
b0 )
b10111001 *
b110 (
b110 #
b10111001 %
b0 $
b1 ,
#880
0!
0-
0"
#885
1!
1-
1"
b0 '
b1110011 )
b11111111111111111111111111111111 *
b111 (
b111 #
b11111111111111111111111111111111 %
b1110011 $
b0 ,
#890
0!
0-
0"
#895
1!
1-
1"
b11111111111111111111111110001100 '
b1101 )
b1001 *
b1 (
b1 #
b1001 %
b1101 $
b11111111111111111111111110001100 ,
#900
0!
0-
0"
#905
1!
1-
1"
b1101 '
b1101110 )
b10010001 *
b111 (
b111 #
b10010001 %
b1101110 $
b1101 ,
#910
0!
0-
0"
#915
1!
1-
1"
b11111111 '
b10110100 )
b1011 *
b100 (
b100 #
b1011 %
b10110100 $
b11111111 ,
#920
0!
0-
0"
#925
1!
1-
1"
b10101001 '
b11011010 )
b110111 *
b1 (
b1 #
b110111 %
b11011010 $
b10101001 ,
#930
0!
0-
0"
#935
1!
1-
1"
b11111111 '
b1110111 )
b10010001 *
b111 (
b111 #
b10010001 %
b1110111 $
b11111111 ,
#940
0!
0-
0"
#945
1!
1-
1"
b11100110 '
b1 )
b11101000 *
b1000 (
b1000 #
b11101000 %
b1 $
b11100110 ,
#950
0!
0-
0"
#955
1!
1-
1"
b1 '
b1000111 )
b10100000 *
b110 (
b110 #
b10100000 %
b1000111 $
b1 ,
#960
0!
0-
0"
#965
1!
1-
1"
b10110001100000 '
b1100100 )
b10 *
b10 (
b10 #
b10 %
b1100100 $
b10110001100000 ,
#970
0!
0-
0"
#975
1!
1-
1"
b1100110 '
b1111111111111111111111111111111 )
b10000000000000000000000000000000 *
b10000000000000000000000000000000 %
b1111111111111111111111111111111 $
b1100110 ,
#980
0!
0-
0"
#985
1!
1-
1"
b11111111111111111111111111111111 '
b0 )
b1 *
b100 (
b100 #
b1 %
b0 $
b11111111111111111111111111111111 ,
#990
0!
0-
0"
#995
1!
1-
1"
b11110000111100001111000011110000 )
b0 *
b11 (
b11 #
b0 %
b11110000111100001111000011110000 $
#1000
0!
0-
0"
#1005
1!
1-
1"
b11110000111100001111000011110000 '
b11111 *
b101 (
b101 #
b11111 %
b11110000111100001111000011110000 ,
#1010
0!
0-
0"
#1015
1!
1-
1"
b1 '
b11111111111111111111111111111111 )
b10 *
b110 (
b110 #
b10 %
b11111111111111111111111111111111 $
b1 ,
#1020
0!
0-
0"
#1025
1!
1-
1"
b11111111111111111111111111111110 '
b10010001101000101011001111000 )
b10010001101000101011001111000 *
b1000 (
b1000 #
b10010001101000101011001111000 %
b10010001101000101011001111000 $
b11111111111111111111111111111110 ,
#1030
0!
0-
0"
#1035
1!
1-
1"
b0 '
b11111111111111111111111111111111 )
b0 *
b111 (
b111 #
b0 %
b11111111111111111111111111111111 $
b0 ,
#1040
0!
0-
0"
#1045
1!
1-
1"
b11111111111111111111111111111111 '
b0 )
b0 (
b0 #
b0 $
b11111111111111111111111111111111 ,
#1050
0!
0-
0"
#1055
1!
1-
1"
b0 '
b1 (
b1 #
b0 ,
#1060
0!
0-
0"
#1065
1!
1-
1"
b10 (
b10 #
#1070
0!
0-
0"
#1075
1!
1-
1"
b11 (
b11 #
#1080
0!
0-
0"
#1085
1!
1-
1"
b100 (
b100 #
#1090
0!
0-
0"
#1095
1!
1-
1"
b101 (
b101 #
#1100
0!
0-
0"
#1105
1!
1-
1"
b110 (
b110 #
#1110
0!
0-
0"
#1115
1!
1-
1"
b111 (
b111 #
#1120
0!
0-
0"
#1125
1!
1-
1"
b1000 (
b1000 #
#1130
0!
0-
0"
#1135
1!
1-
1"
b1111111111111111111111111111111 *
b0 (
b0 #
b1111111111111111111111111111111 %
#1140
0!
0-
0"
#1145
1!
1-
1"
b1 (
b1 #
#1150
0!
0-
0"
#1155
1!
1-
1"
b1111111111111111111111111111111 '
b10 (
b10 #
b1111111111111111111111111111111 ,
#1160
0!
0-
0"
#1165
1!
1-
1"
b11 (
b11 #
#1170
0!
0-
0"
#1175
1!
1-
1"
b0 '
b100 (
b100 #
b0 ,
#1180
0!
0-
0"
#1185
1!
1-
1"
b10000000000000000000000000000001 '
b101 (
b101 #
b10000000000000000000000000000001 ,
#1190
0!
0-
0"
#1195
1!
1-
1"
b0 '
b110 (
b110 #
b0 ,
#1200
0!
0-
0"
#1205
1!
1-
1"
b111 (
b111 #
#1210
0!
0-
0"
#1215
1!
1-
1"
b1111111111111111111111111111111 '
b1000 (
b1000 #
b1111111111111111111111111111111 ,
#1220
0!
0-
0"
#1225
1!
1-
1"
b1 '
b10000000000000000000000000000000 *
b0 (
b0 #
b10000000000000000000000000000000 %
b1 ,
#1230
0!
0-
0"
#1235
1!
1-
1"
b0 '
b1 (
b1 #
b0 ,
#1240
0!
0-
0"
#1245
1!
1-
1"
b10000000000000000000000000000000 '
b10 (
b10 #
b10000000000000000000000000000000 ,
#1250
0!
0-
0"
#1255
1!
1-
1"
b11 (
b11 #
#1260
0!
0-
0"
#1265
1!
1-
1"
b0 '
b100 (
b100 #
b0 ,
#1270
0!
0-
0"
#1275
1!
1-
1"
b10000000000000000000000000000000 '
b101 (
b101 #
b10000000000000000000000000000000 ,
#1280
0!
0-
0"
#1285
1!
1-
1"
b0 '
b110 (
b110 #
b0 ,
#1290
0!
0-
0"
#1295
1!
1-
1"
b111 (
b111 #
#1300
0!
0-
0"
#1305
1!
1-
1"
b10000000000000000000000000000000 '
b1000 (
b1000 #
b10000000000000000000000000000000 ,
#1310
0!
0-
0"
#1315
1!
1-
1"
b1 '
b1111111111111111111111111111111 )
b0 *
b0 (
b0 #
b0 %
b1111111111111111111111111111111 $
b1 ,
#1320
0!
0-
0"
#1325
1!
1-
1"
b0 '
b1 (
b1 #
b0 ,
#1330
0!
0-
0"
#1335
1!
1-
1"
b1111111111111111111111111111111 '
b10 (
b10 #
b1111111111111111111111111111111 ,
#1340
0!
0-
0"
#1345
1!
1-
1"
b11 (
b11 #
#1350
0!
0-
0"
#1355
1!
1-
1"
b100 (
b100 #
#1360
0!
0-
0"
#1365
1!
1-
1"
b101 (
b101 #
#1370
0!
0-
0"
#1375
1!
1-
1"
b110 (
b110 #
#1380
0!
0-
0"
#1385
1!
1-
1"
b0 '
b111 (
b111 #
b0 ,
#1390
0!
0-
0"
#1395
1!
1-
1"
b1111111111111111111111111111111 '
b1000 (
b1000 #
b1111111111111111111111111111111 ,
#1400
0!
0-
0"
#1405
1!
1-
1"
b0 '
b1111111111111111111111111111111 *
b0 (
b0 #
b1111111111111111111111111111111 %
b0 ,
#1410
0!
0-
0"
#1415
1!
1-
1"
b1111111111111111111111111111111 '
b1 (
b1 #
b1111111111111111111111111111111 ,
#1420
0!
0-
0"
#1425
1!
1-
1"
b10 (
b10 #
#1430
0!
0-
0"
#1435
1!
1-
1"
b11111111111111111111111111111110 '
b11 (
b11 #
b11111111111111111111111111111110 ,
#1440
0!
0-
0"
#1445
1!
1-
1"
b0 '
b100 (
b100 #
b0 ,
#1450
0!
0-
0"
#1455
1!
1-
1"
b101 (
b101 #
#1460
0!
0-
0"
#1465
1!
1-
1"
b110 (
b110 #
#1470
0!
0-
0"
#1475
1!
1-
1"
b1 '
b111 (
b111 #
b1 ,
#1480
0!
0-
0"
#1485
1!
1-
1"
b0 '
b1000 (
b1000 #
b0 ,
#1490
0!
0-
0"
#1495
1!
1-
1"
b10000000000000000000000000000000 *
b0 (
b0 #
b10000000000000000000000000000000 %
#1500
0!
0-
0"
#1505
1!
1-
1"
b1 (
b1 #
#1510
0!
0-
0"
#1515
1!
1-
1"
b11111111111111111111111111111111 '
b10 (
b10 #
b11111111111111111111111111111111 ,
#1520
0!
0-
0"
#1525
1!
1-
1"
b11 (
b11 #
#1530
0!
0-
0"
#1535
1!
1-
1"
b0 '
b100 (
b100 #
b0 ,
#1540
0!
0-
0"
#1545
1!
1-
1"
b11111111111111111111111111111111 '
b101 (
b101 #
b11111111111111111111111111111111 ,
#1550
0!
0-
0"
#1555
1!
1-
1"
b0 '
b110 (
b110 #
b0 ,
#1560
0!
0-
0"
#1565
1!
1-
1"
b10000000000000000000000000000000 '
b111 (
b111 #
b10000000000000000000000000000000 ,
#1570
0!
0-
0"
#1575
1!
1-
1"
b11111111111111111111111111111111 '
b1000 (
b1000 #
b11111111111111111111111111111111 ,
#1580
0!
0-
0"
#1585
1!
1-
1"
b1 '
b10000000000000000000000000000000 )
b0 *
b0 (
b0 #
b0 %
b10000000000000000000000000000000 $
b1 ,
#1590
0!
0-
0"
#1595
1!
1-
1"
b0 '
b1 (
b1 #
b0 ,
#1600
0!
0-
0"
#1605
1!
1-
1"
b10000000000000000000000000000000 '
b10 (
b10 #
b10000000000000000000000000000000 ,
#1610
0!
0-
0"
#1615
1!
1-
1"
b11 (
b11 #
#1620
0!
0-
0"
#1625
1!
1-
1"
b100 (
b100 #
#1630
0!
0-
0"
#1635
1!
1-
1"
b101 (
b101 #
#1640
0!
0-
0"
#1645
1!
1-
1"
b110 (
b110 #
#1650
0!
0-
0"
#1655
1!
1-
1"
b0 '
b111 (
b111 #
b0 ,
#1660
0!
0-
0"
#1665
1!
1-
1"
b10000000000000000000000000000000 '
b1000 (
b1000 #
b10000000000000000000000000000000 ,
#1670
0!
0-
0"
#1675
1!
1-
1"
b0 '
b1111111111111111111111111111111 *
b0 (
b0 #
b1111111111111111111111111111111 %
b0 ,
#1680
0!
0-
0"
#1685
1!
1-
1"
b1 (
b1 #
#1690
0!
0-
0"
#1695
1!
1-
1"
b11111111111111111111111111111111 '
b10 (
b10 #
b11111111111111111111111111111111 ,
#1700
0!
0-
0"
#1705
1!
1-
1"
b11 (
b11 #
#1710
0!
0-
0"
#1715
1!
1-
1"
b0 '
b100 (
b100 #
b0 ,
#1720
0!
0-
0"
#1725
1!
1-
1"
b1 '
b101 (
b101 #
b1 ,
#1730
0!
0-
0"
#1735
1!
1-
1"
b0 '
b110 (
b110 #
b0 ,
#1740
0!
0-
0"
#1745
1!
1-
1"
b10000000000000000000000000000000 '
b111 (
b111 #
b10000000000000000000000000000000 ,
#1750
0!
0-
0"
#1755
1!
1-
1"
b11111111111111111111111111111111 '
b1000 (
b1000 #
b11111111111111111111111111111111 ,
#1760
0!
0-
0"
#1765
1!
1-
1"
b0 '
b10000000000000000000000000000000 *
b0 (
b0 #
b10000000000000000000000000000000 %
b0 ,
#1770
0!
0-
0"
#1775
1!
1-
1"
b10000000000000000000000000000000 '
b1 (
b1 #
b10000000000000000000000000000000 ,
#1780
0!
0-
0"
#1785
1!
1-
1"
b10 (
b10 #
#1790
0!
0-
0"
#1795
1!
1-
1"
b0 '
b11 (
b11 #
b0 ,
#1800
0!
0-
0"
#1805
1!
1-
1"
b100 (
b100 #
#1810
0!
0-
0"
#1815
1!
1-
1"
b101 (
b101 #
#1820
0!
0-
0"
#1825
1!
1-
1"
b110 (
b110 #
#1830
0!
0-
0"
#1835
1!
1-
1"
b111 (
b111 #
#1840
0!
0-
0"
#1845
1!
1-
1"
b1000 (
b1000 #
#1850
0!
0-
0"
#1855
1!
1-
1"
b11111111111111111111111111111111 )
b1100011 *
b10 (
b10 #
b1100011 %
b11111111111111111111111111111111 $
#1860
0!
0-
0"
#1865
1!
1-
1"
b1100010 '
b11111101 )
b10001011 *
b111 (
b111 #
b10001011 %
b11111101 $
b1100010 ,
#1870
0!
0-
0"
#1875
1!
1-
1"
b1110110 '
b1111111 )
b10110100 *
b110 (
b110 #
b10110100 %
b1111111 $
b1110110 ,
#1880
0!
0-
0"
#1885
1!
1-
1"
b101100101001100 '
b11001111 )
b11111010 *
b10 (
b10 #
b11111010 %
b11001111 $
b101100101001100 ,
#1890
0!
0-
0"
#1895
1!
1-
1"
b111001001 '
b101111 )
b1101100 *
b0 (
b0 #
b1101100 %
b101111 $
b111001001 ,
#1900
0!
0-
0"
#1905
1!
1-
1"
b101100 '
b1010010 )
b100100 *
b110 (
b110 #
b100100 %
b1010010 $
b101100 ,
#1910
0!
0-
0"
#1915
1!
1-
1"
b101110001000 '
b1111111111111111111111111111111 )
b1001101 *
b10 (
b10 #
b1001101 %
b1111111111111111111111111111111 $
b101110001000 ,
#1920
0!
0-
0"
#1925
1!
1-
1"
b10000000000000000000000001001100 '
b10100 )
b11101110 *
b111 (
b111 #
b11101110 %
b10100 $
b10000000000000000000000001001100 ,
#1930
0!
0-
0"
#1935
1!
1-
1"
b11111010 '
b100011 )
b11010 *
b1 (
b1 #
b11010 %
b100011 $
b11111010 ,
#1940
0!
0-
0"
#1945
1!
1-
1"
b111011 '
b10110101 )
b10000110 *
b100 (
b100 #
b10000110 %
b10110101 $
b111011 ,
#1950
0!
0-
0"
#1955
1!
1-
1"
b101111 '
b11101001 )
b10000101 *
b110 (
b110 #
b10000101 %
b11101001 $
b101111 ,
#1960
0!
0-
0"
#1965
1!
1-
1"
b111100100001101 '
b1010100 )
b10110101 *
b100 (
b100 #
b10110101 %
b1010100 $
b111100100001101 ,
#1970
0!
0-
0"
#1975
1!
1-
1"
b11111111111111111111111110011111 '
b1110010 )
b10110 *
b11 (
b11 #
b10110 %
b1110010 $
b11111111111111111111111110011111 ,
#1980
0!
0-
0"
#1985
1!
1-
1"
b11100100000000000000000000000 '
b111 )
b10000 *
b10000 %
b111 $
b11100100000000000000000000000 ,
#1990
0!
0-
0"
#1995
1!
1-
1"
b1110000000000000000 '
b11010111 )
b11111 *
b11111 %
b11010111 $
b1110000000000000000 ,
#2000
0!
0-
0"
#2005
1!
1-
1"
b10000000000000000000000000000000 '
b101111 )
b111101 *
b110 (
b110 #
b111101 %
b101111 $
b10000000000000000000000000000000 ,
#2010
0!
0-
0"
#2015
1!
1-
1"
b101100110011 '
b11110110 )
b10010100 *
b10010100 %
b11110110 $
b101100110011 ,
#2020
0!
0-
0"
#2025
1!
1-
1"
b1000111000111000 '
b10101011 )
b11 *
b100 (
b100 #
b11 %
b10101011 $
b1000111000111000 ,
#2030
0!
0-
0"
#2035
1!
1-
1"
b10101000 '
b11010110 )
b10101001 *
b110 (
b110 #
b10101001 %
b11010110 $
b10101000 ,
#2040
0!
0-
0"
#2045
1!
1-
1"
b1000110101000110 '
b10010001 )
b11110010 *
b1000 (
b1000 #
b11110010 %
b10010001 $
b1000110101000110 ,
#2050
0!
0-
0"
#2055
1!
1-
1"
b1 '
b1111101 )
b1000 *
b10 (
b10 #
b1000 %
b1111101 $
b1 ,
#2060
0!
0-
0"
#2065
1!
1-
1"
b10000101 '
b11101011 )
b1000000 *
b111 (
b111 #
b1000000 %
b11101011 $
b10000101 ,
#2070
0!
0-
0"
#2075
1!
1-
1"
b10101011 '
b11101001 )
b10010001 *
b110 (
b110 #
b10010001 %
b11101001 $
b10101011 ,
#2080
0!
0-
0"
#2085
1!
1-
1"
b1000001111111001 '
b10101110 )
b1001110 *
b1 (
b1 #
b1001110 %
b10101110 $
b1000001111111001 ,
#2090
0!
0-
0"
#2095
1!
1-
1"
b11101110 '
b10100001 )
b11001 *
b110 (
b110 #
b11001 %
b10100001 $
b11101110 ,
#2100
0!
0-
0"
#2105
1!
1-
1"
b111110111001 '
b10010011 )
b0 *
b11 (
b11 #
b0 %
b10010011 $
b111110111001 ,
#2110
0!
0-
0"
#2115
1!
1-
1"
b10010011 '
b1000110 )
b10010000 *
b100 (
b100 #
b10010000 %
b1000110 $
b10010011 ,
#2120
0!
0-
0"
#2125
1!
1-
1"
b11111111111111111111111110110110 '
b11101011 )
b11011110 *
b1 (
b1 #
b11011110 %
b11101011 $
b11111111111111111111111110110110 ,
#2130
0!
0-
0"
#2135
1!
1-
1"
b11111111 '
b1001101 )
b10101111 *
b111 (
b111 #
b10101111 %
b1001101 $
b11111111 ,
#2140
0!
0-
0"
