qrun.log
QuestaSim-64 qrun 2024.3_1 Utility 2024.10 Oct 17 2024
Start time: 06:16:44 on Nov 25,2025
qrun -batch -access=rw+/. -uvmhome uvm-1.2 -timescale 1ns/1ns -mfcu design.sv testbench.sv -voptargs="+acc=npr+UVM_CONFIG_DB_TRACE" -do " run -all; exit" 
Creating library 'qrun.out/work'.
Mapping library 'mtiUvm' to 'qrun.out/work'.
QuestaSim-64 vlog 2024.3_1 Compiler 2024.10 Oct 17 2024
Start time: 06:16:44 on Nov 25,2025
vlog -timescale 1ns/1ns -mfcu -ccflags "-Wno-missing-declarations" -ccflags "-Wno-maybe-uninitialized" -ccflags "-Wno-return-type" -ccflags "-DQUESTA" /usr/share/questa/questasim/verilog_src/uvm-1.2/src/dpi/uvm_dpi.cc /usr/share/questa/questasim/verilog_src/uvm-1.2/src/uvm_pkg.sv /usr/share/questa/questasim/verilog_src/questa_uvm_pkg-1.2/src/questa_uvm_pkg.sv design.sv testbench.sv -work qrun.out/work "+incdir+/usr/share/questa/questasim/verilog_src/uvm-1.2/src" -statslog qrun.out/stats_log -writesessionid "+qrun.out/top_dus" -csession=incr 
-- Compiling package uvm_pkg (uvm-1.2 Built-in)
-- Compiling package questa_uvm_pkg
-- Importing package uvm_pkg (uvm-1.2 Built-in)
-- Compiling interface dut_if
-- Compiling module dut
-- Compiling module alu_assertions
-- Compiling package my_testbench_pkg
** Warning: ** while parsing file included at testbench.sv(48)
** at one_func_seq.svh(19): (vlog-2240) Treating stand-alone use of function 'randomize' as an implicit VOID cast.
-- Compiling module top
-- Importing package my_testbench_pkg

Top level modules:
	top
-- Compiling DPI/PLI C++ file /usr/share/questa/questasim/verilog_src/uvm-1.2/src/dpi/uvm_dpi.cc

In file included from /usr/share/questa/questasim/verilog_src/uvm-1.2/src/dpi/uvm_hdl.c:27,
                 from /usr/share/questa/questasim/verilog_src/uvm-1.2/src/dpi/uvm_dpi.cc:37:
/usr/share/questa/questasim/verilog_src/uvm-1.2/src/dpi/uvm_hdl_questa.c: In function 'int uvm_is_vhdl_path(char*)':
/usr/share/questa/questasim/verilog_src/uvm-1.2/src/dpi/uvm_hdl_questa.c:90:12: warning: 'char* strncpy(char*, const char*, size_t)' specified bound depends on the length of the source argument [-Wstringop-overflow=]
   90 |     strncpy(path_copy, path, path_len);
      |     ~~~~~~~^~~~~~~~~~~~~~~~~~~~~~~~~~~
/usr/share/questa/questasim/verilog_src/uvm-1.2/src/dpi/uvm_hdl_questa.c:72:20: note: length computed here
   72 |   path_len = strlen(path);
      |              ~~~~~~^~~~~~

End time: 06:16:46 on Nov 25,2025, Elapsed time: 0:00:02
Errors: 0, Warnings: 1
QuestaSim-64 vopt 2024.3_1 Compiler 2024.10 Oct 17 2024
** Warning: (vopt-10587) Some optimizations are turned off because the +acc switch is in effect. This will cause your simulation to run slowly. Please use -access/-debug to maintain needed visibility. The +acc switch would be deprecated in a future release.
Start time: 06:16:46 on Nov 25,2025
vopt -access=rw+/. -timescale 1ns/1ns -mfcu "+acc=npr+UVM_CONFIG_DB_TRACE" -findtoplevels qrun.out/work+1+ -work qrun.out/work -statslog qrun.out/stats_log -csession=incr -o qrun_opt -csessionid=2 

Top level modules:
	top

Analyzing design...
-- Loading module top
-- Importing package uvm_pkg (uvm-1.2 Built-in)
-- Importing package my_testbench_pkg
-- Loading package questa_uvm_pkg
-- Loading interface dut_if
-- Loading module dut
-- Loading module alu_assertions
** Warning: (vopt-2108) Cannot find module 'UVM_CONFIG_DB_TRACE' specified in +acc option.
Optimizing 8 design-units (inlining 3/4 module instances):
-- Optimizing package uvm_pkg (uvm-1.2 Built-in)(fast)
-- Optimizing package questa_uvm_pkg(fast)
-- Optimizing package my_testbench_pkg(fast)
** Warning: same_op_seq.svh(19): (vopt-2240) Treating stand-alone use of function 'get' as an implicit VOID cast.
** Warning: same_op_seq.svh(20): (vopt-2240) Treating stand-alone use of function 'get' as an implicit VOID cast.
** Warning: any_func_seq.svh(19): (vopt-2240) Treating stand-alone use of function 'get' as an implicit VOID cast.
** Warning: any_func_seq.svh(20): (vopt-2240) Treating stand-alone use of function 'get' as an implicit VOID cast.
** Warning: one_func_seq.svh(19): (vopt-2240) Treating stand-alone use of function 'randomize' as an implicit VOID cast.
** Warning: one_func_seq.svh(26): (vopt-2240) Treating stand-alone use of function 'get' as an implicit VOID cast.
** Warning: one_func_seq.svh(27): (vopt-2240) Treating stand-alone use of function 'get' as an implicit VOID cast.
-- Inlining interface dut_if(fast__2)
-- Inlining module dut(fast)
-- Inlining module alu_assertions(fast)
-- Optimizing module top(fast)
-- Optimizing interface dut_if(fast)
Optimized design name is qrun_opt
End time: 06:16:54 on Nov 25,2025, Elapsed time: 0:00:08
Errors: 0, Warnings: 9
# vsim -batch -lib qrun.out/work -do " run -all; exit" -statslog qrun.out/stats_log qrun_opt -appendlog -l qrun.log 
# Start time: 06:16:54 on Nov 25,2025
# Loading /tmp/unknown@c38eb17e1286_dpi_51/linux_x86_64_gcc-10.3.0/export_tramp.so
# //  Questa Sim-64
# //  Version 2024.3_1 linux_x86_64 Oct 17 2024
# //
# // Unpublished work. Copyright 2024 Siemens
# //
# // This material contains trade secrets or otherwise confidential information
# // owned by Siemens Industry Software Inc. or its affiliates (collectively,
# // "SISW"), or its licensors. Access to and use of this information is strictly
# // limited as set forth in the Customer's applicable agreements with SISW.
# //
# // This material may not be copied, distributed, or otherwise disclosed outside
# // of the Customer's facilities without the express written permission of SISW,
# // and may not be used in any way not expressly authorized by SISW.
# //
# Loading sv_std.std
# Loading work.dut_if(fast)
# Loading work.uvm_pkg(fast)
# Loading work.my_testbench_pkg(fast)
# Loading work.questa_uvm_pkg(fast)
# Loading work.top(fast)
# Compiling /tmp/unknown@c38eb17e1286_dpi_51/linux_x86_64_gcc-10.3.0/exportwrapper.c
# Loading /tmp/unknown@c38eb17e1286_dpi_51/linux_x86_64_gcc-10.3.0/vsim_auto_compile.so
# 
# run -all
# UVM_INFO /usr/share/questa/questasim/verilog_src/uvm-1.2/src/base/uvm_root.svh(392) @ 0: reporter [UVM/RELNOTES] 
# ----------------------------------------------------------------
# UVM-1.2
# (C) 2007-2014 Mentor Graphics Corporation
# (C) 2007-2014 Cadence Design Systems, Inc.
# (C) 2006-2014 Synopsys, Inc.
# (C) 2011-2013 Cypress Semiconductor Corp.
# (C) 2013-2014 NVIDIA Corporation
# ----------------------------------------------------------------
# 
#   ***********       IMPORTANT RELEASE NOTES         ************
# 
#   You are using a version of the UVM library that has been compiled
#   with `UVM_NO_DEPRECATED undefined.
#   See http://www.eda.org/svdb/view.php?id=3313 for more details.
# 
#   You are using a version of the UVM library that has been compiled
#   with `UVM_OBJECT_DO_NOT_NEED_CONSTRUCTOR undefined.
#   See http://www.eda.org/svdb/view.php?id=3770 for more details.
# 
#       (Specify +UVM_NO_RELNOTES to turn off this notice)
# 
# UVM_INFO /usr/share/questa/questasim/verilog_src/questa_uvm_pkg-1.2/src/questa_uvm_pkg.sv(277) @ 0: reporter [Questa UVM] QUESTA_UVM-1.2.3
# UVM_INFO /usr/share/questa/questasim/verilog_src/questa_uvm_pkg-1.2/src/questa_uvm_pkg.sv(278) @ 0: reporter [Questa UVM]  questa_uvm::init(+struct)
# UVM_INFO @ 0: reporter [RNTST] Running test ...
# UVM_INFO testbench.sv(99) @ 0: reporter [TESTTOP] My UVM testbench!
# ** Error: Assertion error.
#    Time: 5 ns Started: 5 ns  Scope: top.alu_sva.a_no_xz_result File: testbench.sv Line: 26
# ** Error: Assertion error.
#    Time: 5 ns Started: 5 ns  Scope: top.alu_sva.a_no_xz_cmd File: testbench.sv Line: 38
# ** Error: Assertion error.
#    Time: 15 ns Started: 15 ns  Scope: top.alu_sva.a_no_xz_result File: testbench.sv Line: 26
# ** Error: Assertion error.
#    Time: 15 ns Started: 15 ns  Scope: top.alu_sva.a_no_xz_cmd File: testbench.sv Line: 38
# ** Error: Assertion error.
#    Time: 25 ns Started: 25 ns  Scope: top.alu_sva.a_no_xz_result File: testbench.sv Line: 26
# ** Error: Assertion error.
#    Time: 25 ns Started: 25 ns  Scope: top.alu_sva.a_no_xz_cmd File: testbench.sv Line: 38
# ** Error: Assertion error.
#    Time: 35 ns Started: 35 ns  Scope: top.alu_sva.a_no_xz_result File: testbench.sv Line: 26
# ** Error: Assertion error.
#    Time: 35 ns Started: 35 ns  Scope: top.alu_sva.a_no_xz_cmd File: testbench.sv Line: 38
# UVM_INFO my_monitor.svh(60) @ 45: test.env.agent.monitor [MONITOR] Transaction generated by monitor - in1: 00000000000000000000000000000000, in2: 00000000000000000000000000000000, op: x, result: = 00000000000000000000000000000000
# UVM_INFO my_comparator.svh(43) @ 45: test.env.scoreboard.comparator [INGRESS] Transaction created by monitor: in1: 00000000, in2: 00000000, op: x, result: 00000000
# UVM_INFO my_comparator.svh(45) @ 45: test.env.scoreboard.comparator [PREDICTOR] Transaction created by PREDICTOR: in1: 00000000, in2: 00000000, op: x, result: 00000000
# UVM_INFO my_comparator.svh(48) @ 45: test.env.scoreboard.comparator [SCOREBOARD] Matched result
# 
# ** Error: Assertion error.
#    Time: 45 ns Started: 45 ns  Scope: top.alu_sva.a_no_xz_result File: testbench.sv Line: 26
# ** Error: Assertion error.
#    Time: 45 ns Started: 45 ns  Scope: top.alu_sva.a_no_xz_cmd File: testbench.sv Line: 38
# UVM_INFO my_monitor.svh(60) @ 55: test.env.agent.monitor [MONITOR] Transaction generated by monitor - in1: 00000000000000000000000000000000, in2: 00000000000000000000000000000000, op: x, result: = 00000000000000000000000000000000
# UVM_INFO my_comparator.svh(43) @ 55: test.env.scoreboard.comparator [INGRESS] Transaction created by monitor: in1: 00000000, in2: 00000000, op: x, result: 00000000
# UVM_INFO my_comparator.svh(45) @ 55: test.env.scoreboard.comparator [PREDICTOR] Transaction created by PREDICTOR: in1: 00000000, in2: 00000000, op: x, result: 00000000
# UVM_INFO my_comparator.svh(48) @ 55: test.env.scoreboard.comparator [SCOREBOARD] Matched result
# 
# ** Error: Assertion error.
#    Time: 55 ns Started: 55 ns  Scope: top.alu_sva.a_no_xz_result File: testbench.sv Line: 26
# ** Error: Assertion error.
#    Time: 55 ns Started: 55 ns  Scope: top.alu_sva.a_no_xz_cmd File: testbench.sv Line: 38
# UVM_INFO my_monitor.svh(60) @ 65: test.env.agent.monitor [MONITOR] Transaction generated by monitor - in1: 00000000000000000000000000000000, in2: 00000000000000000000000000000000, op: x, result: = 00000000000000000000000000000000
# UVM_INFO my_comparator.svh(43) @ 65: test.env.scoreboard.comparator [INGRESS] Transaction created by monitor: in1: 00000000, in2: 00000000, op: x, result: 00000000
# UVM_INFO my_comparator.svh(45) @ 65: test.env.scoreboard.comparator [PREDICTOR] Transaction created by PREDICTOR: in1: 00000000, in2: 00000000, op: x, result: 00000000
# UVM_INFO my_comparator.svh(48) @ 65: test.env.scoreboard.comparator [SCOREBOARD] Matched result
# 
# ** Error: Assertion error.
#    Time: 65 ns Started: 65 ns  Scope: top.alu_sva.a_no_xz_result File: testbench.sv Line: 26
# UVM_INFO my_monitor.svh(60) @ 75: test.env.agent.monitor [MONITOR] Transaction generated by monitor - in1: 01111111111111111111111111111111, in2: 00000000000000000000000000000001, op: 2, result: = 10000000000000000000000000000000
# UVM_INFO my_comparator.svh(43) @ 75: test.env.scoreboard.comparator [INGRESS] Transaction created by monitor: in1: 7fffffff, in2: 00000001, op: 2, result: 80000000
# UVM_INFO my_comparator.svh(45) @ 75: test.env.scoreboard.comparator [PREDICTOR] Transaction created by PREDICTOR: in1: 7fffffff, in2: 00000001, op: 2, result: 80000000
# UVM_INFO my_comparator.svh(48) @ 75: test.env.scoreboard.comparator [SCOREBOARD] Matched result
# 
# UVM_INFO my_monitor.svh(60) @ 85: test.env.agent.monitor [MONITOR] Transaction generated by monitor - in1: 00000000000000000000000000000000, in2: 00000000000000000000000000000001, op: 4, result: = 11111111111111111111111111111111
# UVM_INFO my_comparator.svh(43) @ 85: test.env.scoreboard.comparator [INGRESS] Transaction created by monitor: in1: 00000000, in2: 00000001, op: 4, result: ffffffff
# UVM_INFO my_comparator.svh(45) @ 85: test.env.scoreboard.comparator [PREDICTOR] Transaction created by PREDICTOR: in1: 00000000, in2: 00000001, op: 4, result: ffffffff
# UVM_INFO my_comparator.svh(48) @ 85: test.env.scoreboard.comparator [SCOREBOARD] Matched result
# 
# UVM_INFO my_monitor.svh(60) @ 95: test.env.agent.monitor [MONITOR] Transaction generated by monitor - in1: 00000000000000000000000000000001, in2: 00000000000000000000000000011111, op: 3, result: = 10000000000000000000000000000000
# UVM_INFO my_comparator.svh(43) @ 95: test.env.scoreboard.comparator [INGRESS] Transaction created by monitor: in1: 00000001, in2: 0000001f, op: 3, result: 80000000
# UVM_INFO my_comparator.svh(45) @ 95: test.env.scoreboard.comparator [PREDICTOR] Transaction created by PREDICTOR: in1: 00000001, in2: 0000001f, op: 3, result: 80000000
# UVM_INFO my_comparator.svh(48) @ 95: test.env.scoreboard.comparator [SCOREBOARD] Matched result
# 
# UVM_INFO my_monitor.svh(60) @ 105: test.env.agent.monitor [MONITOR] Transaction generated by monitor - in1: 10000000000000000000000000000000, in2: 00000000000000000000000000011111, op: 5, result: = 00000000000000000000000000000001
# UVM_INFO my_comparator.svh(43) @ 105: test.env.scoreboard.comparator [INGRESS] Transaction created by monitor: in1: 80000000, in2: 0000001f, op: 5, result: 00000001
# UVM_INFO my_comparator.svh(45) @ 105: test.env.scoreboard.comparator [PREDICTOR] Transaction created by PREDICTOR: in1: 80000000, in2: 0000001f, op: 5, result: 00000001
# UVM_INFO my_comparator.svh(48) @ 105: test.env.scoreboard.comparator [SCOREBOARD] Matched result
# 
# UVM_INFO my_monitor.svh(60) @ 115: test.env.agent.monitor [MONITOR] Transaction generated by monitor - in1: 00000000000000001111111111111111, in2: 00000000000000001111111111111111, op: 6, result: = 11111111111111100000000000000001
# UVM_INFO my_comparator.svh(43) @ 115: test.env.scoreboard.comparator [INGRESS] Transaction created by monitor: in1: 0000ffff, in2: 0000ffff, op: 6, result: fffe0001
# UVM_INFO my_comparator.svh(45) @ 115: test.env.scoreboard.comparator [PREDICTOR] Transaction created by PREDICTOR: in1: 0000ffff, in2: 0000ffff, op: 6, result: fffe0001
# UVM_INFO my_comparator.svh(48) @ 115: test.env.scoreboard.comparator [SCOREBOARD] Matched result
# 
# UVM_INFO my_monitor.svh(60) @ 125: test.env.agent.monitor [MONITOR] Transaction generated by monitor - in1: 00000000000000000000000000000000, in2: 11111111111111111111111111111111, op: 0, result: = 00000000000000000000000000000000
# UVM_INFO my_comparator.svh(43) @ 125: test.env.scoreboard.comparator [INGRESS] Transaction created by monitor: in1: 00000000, in2: ffffffff, op: 0, result: 00000000
# UVM_INFO my_comparator.svh(45) @ 125: test.env.scoreboard.comparator [PREDICTOR] Transaction created by PREDICTOR: in1: 00000000, in2: ffffffff, op: 0, result: 00000000
# UVM_INFO my_comparator.svh(48) @ 125: test.env.scoreboard.comparator [SCOREBOARD] Matched result
# 
# UVM_INFO my_monitor.svh(60) @ 135: test.env.agent.monitor [MONITOR] Transaction generated by monitor - in1: 11111111111111111111111111111111, in2: 11111111111111111111111111111111, op: 7, result: = 00000000000000000000000000000000
# UVM_INFO my_comparator.svh(43) @ 135: test.env.scoreboard.comparator [INGRESS] Transaction created by monitor: in1: ffffffff, in2: ffffffff, op: 7, result: 00000000
# UVM_INFO my_comparator.svh(45) @ 135: test.env.scoreboard.comparator [PREDICTOR] Transaction created by PREDICTOR: in1: ffffffff, in2: ffffffff, op: 7, result: 00000000
# UVM_INFO my_comparator.svh(48) @ 135: test.env.scoreboard.comparator [SCOREBOARD] Matched result
# 
# UVM_INFO my_monitor.svh(60) @ 145: test.env.agent.monitor [MONITOR] Transaction generated by monitor - in1: 00010010001101000101011001111000, in2: 00010010001101000101011001111000, op: 8, result: = 00000000000000000000000000000000
# UVM_INFO my_comparator.svh(43) @ 145: test.env.scoreboard.comparator [INGRESS] Transaction created by monitor: in1: 12345678, in2: 12345678, op: 8, result: 00000000
# UVM_INFO my_comparator.svh(45) @ 145: test.env.scoreboard.comparator [PREDICTOR] Transaction created by PREDICTOR: in1: 12345678, in2: 12345678, op: 8, result: 00000000
# UVM_INFO my_comparator.svh(48) @ 145: test.env.scoreboard.comparator [SCOREBOARD] Matched result
# 
# UVM_INFO my_monitor.svh(60) @ 155: test.env.agent.monitor [MONITOR] Transaction generated by monitor - in1: 01111111111111111111111111111111, in2: 10000000000000000000000000000000, op: 0, result: = 00000000000000000000000000000000
# UVM_INFO my_comparator.svh(43) @ 155: test.env.scoreboard.comparator [INGRESS] Transaction created by monitor: in1: 7fffffff, in2: 80000000, op: 0, result: 00000000
# UVM_INFO my_comparator.svh(45) @ 155: test.env.scoreboard.comparator [PREDICTOR] Transaction created by PREDICTOR: in1: 7fffffff, in2: 80000000, op: 0, result: 00000000
# UVM_INFO my_comparator.svh(48) @ 155: test.env.scoreboard.comparator [SCOREBOARD] Matched result
# 
# UVM_INFO my_monitor.svh(60) @ 165: test.env.agent.monitor [MONITOR] Transaction generated by monitor - in1: 10000000000000000000000000000000, in2: 01111111111111111111111111111111, op: 4, result: = 00000000000000000000000000000001
# UVM_INFO my_comparator.svh(43) @ 165: test.env.scoreboard.comparator [INGRESS] Transaction created by monitor: in1: 80000000, in2: 7fffffff, op: 4, result: 00000001
# UVM_INFO my_comparator.svh(45) @ 165: test.env.scoreboard.comparator [PREDICTOR] Transaction created by PREDICTOR: in1: 80000000, in2: 7fffffff, op: 4, result: 00000001
# UVM_INFO my_comparator.svh(48) @ 165: test.env.scoreboard.comparator [SCOREBOARD] Matched result
# 
# UVM_INFO my_monitor.svh(60) @ 175: test.env.agent.monitor [MONITOR] Transaction generated by monitor - in1: 00000000000000000000000000000000, in2: 01111111111111111111111111111111, op: 6, result: = 00000000000000000000000000000000
# UVM_INFO my_comparator.svh(43) @ 175: test.env.scoreboard.comparator [INGRESS] Transaction created by monitor: in1: 00000000, in2: 7fffffff, op: 6, result: 00000000
# UVM_INFO my_comparator.svh(45) @ 175: test.env.scoreboard.comparator [PREDICTOR] Transaction created by PREDICTOR: in1: 00000000, in2: 7fffffff, op: 6, result: 00000000
# UVM_INFO my_comparator.svh(48) @ 175: test.env.scoreboard.comparator [SCOREBOARD] Matched result
# 
# UVM_INFO my_monitor.svh(60) @ 185: test.env.agent.monitor [MONITOR] Transaction generated by monitor - in1: 01111111111111111111111111111111, in2: 10000000000000000000000000000000, op: 8, result: = 00000000000000000000000000000001
# UVM_INFO my_comparator.svh(43) @ 185: test.env.scoreboard.comparator [INGRESS] Transaction created by monitor: in1: 7fffffff, in2: 80000000, op: 8, result: 00000001
# UVM_INFO my_comparator.svh(45) @ 185: test.env.scoreboard.comparator [PREDICTOR] Transaction created by PREDICTOR: in1: 7fffffff, in2: 80000000, op: 8, result: 00000001
# UVM_INFO my_comparator.svh(48) @ 185: test.env.scoreboard.comparator [SCOREBOARD] Matched result
# 
# UVM_INFO my_monitor.svh(60) @ 195: test.env.agent.monitor [MONITOR] Transaction generated by monitor - in1: 00000000000000000000000000100000, in2: 00000000000000000000000001001000, op: 0, result: = 00000000000000000000000000000000
# UVM_INFO my_comparator.svh(43) @ 195: test.env.scoreboard.comparator [INGRESS] Transaction created by monitor: in1: 00000020, in2: 00000048, op: 0, result: 00000000
# UVM_INFO my_comparator.svh(45) @ 195: test.env.scoreboard.comparator [PREDICTOR] Transaction created by PREDICTOR: in1: 00000020, in2: 00000048, op: 0, result: 00000000
# UVM_INFO my_comparator.svh(48) @ 195: test.env.scoreboard.comparator [SCOREBOARD] Matched result
# 
# UVM_INFO my_monitor.svh(60) @ 205: test.env.agent.monitor [MONITOR] Transaction generated by monitor - in1: 00000000000000000000000010000010, in2: 00000000000000000000000001110000, op: 1, result: = 00000000000000000000000011110010
# UVM_INFO my_comparator.svh(43) @ 205: test.env.scoreboard.comparator [INGRESS] Transaction created by monitor: in1: 00000082, in2: 00000070, op: 1, result: 000000f2
# UVM_INFO my_comparator.svh(45) @ 205: test.env.scoreboard.comparator [PREDICTOR] Transaction created by PREDICTOR: in1: 00000082, in2: 00000070, op: 1, result: 000000f2
# UVM_INFO my_comparator.svh(48) @ 205: test.env.scoreboard.comparator [SCOREBOARD] Matched result
# 
# UVM_INFO my_monitor.svh(60) @ 215: test.env.agent.monitor [MONITOR] Transaction generated by monitor - in1: 00000000000000000000000001110100, in2: 00000000000000000000000010011011, op: 1, result: = 00000000000000000000000011111111
# UVM_INFO my_comparator.svh(43) @ 215: test.env.scoreboard.comparator [INGRESS] Transaction created by monitor: in1: 00000074, in2: 0000009b, op: 1, result: 000000ff
# UVM_INFO my_comparator.svh(45) @ 215: test.env.scoreboard.comparator [PREDICTOR] Transaction created by PREDICTOR: in1: 00000074, in2: 0000009b, op: 1, result: 000000ff
# UVM_INFO my_comparator.svh(48) @ 215: test.env.scoreboard.comparator [SCOREBOARD] Matched result
# 
# UVM_INFO my_monitor.svh(60) @ 225: test.env.agent.monitor [MONITOR] Transaction generated by monitor - in1: 00000000000000000000000001011000, in2: 00000000000000000000000001010011, op: 7, result: = 00000000000000000000000000001011
# UVM_INFO my_comparator.svh(43) @ 225: test.env.scoreboard.comparator [INGRESS] Transaction created by monitor: in1: 00000058, in2: 00000053, op: 7, result: 0000000b
# UVM_INFO my_comparator.svh(45) @ 225: test.env.scoreboard.comparator [PREDICTOR] Transaction created by PREDICTOR: in1: 00000058, in2: 00000053, op: 7, result: 0000000b
# UVM_INFO my_comparator.svh(48) @ 225: test.env.scoreboard.comparator [SCOREBOARD] Matched result
# 
# UVM_INFO my_monitor.svh(60) @ 235: test.env.agent.monitor [MONITOR] Transaction generated by monitor - in1: 00000000000000000000000001111110, in2: 00000000000000000000000000000110, op: 1, result: = 00000000000000000000000001111110
# UVM_INFO my_comparator.svh(43) @ 235: test.env.scoreboard.comparator [INGRESS] Transaction created by monitor: in1: 0000007e, in2: 00000006, op: 1, result: 0000007e
# UVM_INFO my_comparator.svh(45) @ 235: test.env.scoreboard.comparator [PREDICTOR] Transaction created by PREDICTOR: in1: 0000007e, in2: 00000006, op: 1, result: 0000007e
# UVM_INFO my_comparator.svh(48) @ 235: test.env.scoreboard.comparator [SCOREBOARD] Matched result
# 
# UVM_INFO my_monitor.svh(60) @ 245: test.env.agent.monitor [MONITOR] Transaction generated by monitor - in1: 00000000000000000000000000111100, in2: 00000000000000000000000001011111, op: 0, result: = 00000000000000000000000000011100
# UVM_INFO my_comparator.svh(43) @ 245: test.env.scoreboard.comparator [INGRESS] Transaction created by monitor: in1: 0000003c, in2: 0000005f, op: 0, result: 0000001c
# UVM_INFO my_comparator.svh(45) @ 245: test.env.scoreboard.comparator [PREDICTOR] Transaction created by PREDICTOR: in1: 0000003c, in2: 0000005f, op: 0, result: 0000001c
# UVM_INFO my_comparator.svh(48) @ 245: test.env.scoreboard.comparator [SCOREBOARD] Matched result
# 
# UVM_INFO my_monitor.svh(60) @ 255: test.env.agent.monitor [MONITOR] Transaction generated by monitor - in1: 00000000000000000000000000101110, in2: 00000000000000000000000000010010, op: 7, result: = 00000000000000000000000000111100
# UVM_INFO my_comparator.svh(43) @ 255: test.env.scoreboard.comparator [INGRESS] Transaction created by monitor: in1: 0000002e, in2: 00000012, op: 7, result: 0000003c
# UVM_INFO my_comparator.svh(45) @ 255: test.env.scoreboard.comparator [PREDICTOR] Transaction created by PREDICTOR: in1: 0000002e, in2: 00000012, op: 7, result: 0000003c
# UVM_INFO my_comparator.svh(48) @ 255: test.env.scoreboard.comparator [SCOREBOARD] Matched result
# 
# UVM_INFO my_monitor.svh(60) @ 265: test.env.agent.monitor [MONITOR] Transaction generated by monitor - in1: 00000000000000000000000011101001, in2: 00000000000000000000000010111010, op: 2, result: = 00000000000000000000000110100011
# UVM_INFO my_comparator.svh(43) @ 265: test.env.scoreboard.comparator [INGRESS] Transaction created by monitor: in1: 000000e9, in2: 000000ba, op: 2, result: 000001a3
# UVM_INFO my_comparator.svh(45) @ 265: test.env.scoreboard.comparator [PREDICTOR] Transaction created by PREDICTOR: in1: 000000e9, in2: 000000ba, op: 2, result: 000001a3
# UVM_INFO my_comparator.svh(48) @ 265: test.env.scoreboard.comparator [SCOREBOARD] Matched result
# 
# UVM_INFO my_monitor.svh(60) @ 275: test.env.agent.monitor [MONITOR] Transaction generated by monitor - in1: 11111111111111111111111111111111, in2: 00000000000000000000000000010001, op: 3, result: = 11111111111111100000000000000000
# UVM_INFO my_comparator.svh(43) @ 275: test.env.scoreboard.comparator [INGRESS] Transaction created by monitor: in1: ffffffff, in2: 00000011, op: 3, result: fffe0000
# UVM_INFO my_comparator.svh(45) @ 275: test.env.scoreboard.comparator [PREDICTOR] Transaction created by PREDICTOR: in1: ffffffff, in2: 00000011, op: 3, result: fffe0000
# UVM_INFO my_comparator.svh(48) @ 275: test.env.scoreboard.comparator [SCOREBOARD] Matched result
# 
# UVM_INFO my_monitor.svh(60) @ 285: test.env.agent.monitor [MONITOR] Transaction generated by monitor - in1: 00000000000000000000000011000010, in2: 00000000000000000000000001110101, op: 7, result: = 00000000000000000000000010110111
# UVM_INFO my_comparator.svh(43) @ 285: test.env.scoreboard.comparator [INGRESS] Transaction created by monitor: in1: 000000c2, in2: 00000075, op: 7, result: 000000b7
# UVM_INFO my_comparator.svh(45) @ 285: test.env.scoreboard.comparator [PREDICTOR] Transaction created by PREDICTOR: in1: 000000c2, in2: 00000075, op: 7, result: 000000b7
# UVM_INFO my_comparator.svh(48) @ 285: test.env.scoreboard.comparator [SCOREBOARD] Matched result
# 
# UVM_INFO my_monitor.svh(60) @ 295: test.env.agent.monitor [MONITOR] Transaction generated by monitor - in1: 00000000000000000000000001011011, in2: 00000000000000000000000000001001, op: 5, result: = 00000000000000000000000000000000
# UVM_INFO my_comparator.svh(43) @ 295: test.env.scoreboard.comparator [INGRESS] Transaction created by monitor: in1: 0000005b, in2: 00000009, op: 5, result: 00000000
# UVM_INFO my_comparator.svh(45) @ 295: test.env.scoreboard.comparator [PREDICTOR] Transaction created by PREDICTOR: in1: 0000005b, in2: 00000009, op: 5, result: 00000000
# UVM_INFO my_comparator.svh(48) @ 295: test.env.scoreboard.comparator [SCOREBOARD] Matched result
# 
# UVM_INFO my_monitor.svh(60) @ 305: test.env.agent.monitor [MONITOR] Transaction generated by monitor - in1: 00000000000000000000000000011000, in2: 00000000000000000000000011111001, op: 4, result: = 11111111111111111111111100011111
# UVM_INFO my_comparator.svh(43) @ 305: test.env.scoreboard.comparator [INGRESS] Transaction created by monitor: in1: 00000018, in2: 000000f9, op: 4, result: ffffff1f
# UVM_INFO my_comparator.svh(45) @ 305: test.env.scoreboard.comparator [PREDICTOR] Transaction created by PREDICTOR: in1: 00000018, in2: 000000f9, op: 4, result: ffffff1f
# UVM_INFO my_comparator.svh(48) @ 305: test.env.scoreboard.comparator [SCOREBOARD] Matched result
# 
# UVM_INFO my_monitor.svh(60) @ 315: test.env.agent.monitor [MONITOR] Transaction generated by monitor - in1: 00000000000000000000000011111001, in2: 00000000000000000000000011111110, op: 4, result: = 11111111111111111111111111111011
# UVM_INFO my_comparator.svh(43) @ 315: test.env.scoreboard.comparator [INGRESS] Transaction created by monitor: in1: 000000f9, in2: 000000fe, op: 4, result: fffffffb
# UVM_INFO my_comparator.svh(45) @ 315: test.env.scoreboard.comparator [PREDICTOR] Transaction created by PREDICTOR: in1: 000000f9, in2: 000000fe, op: 4, result: fffffffb
# UVM_INFO my_comparator.svh(48) @ 315: test.env.scoreboard.comparator [SCOREBOARD] Matched result
# 
# UVM_INFO my_monitor.svh(60) @ 325: test.env.agent.monitor [MONITOR] Transaction generated by monitor - in1: 00000000000000000000000011100100, in2: 00000000000000000000000000001000, op: 0, result: = 00000000000000000000000000000000
# UVM_INFO my_comparator.svh(43) @ 325: test.env.scoreboard.comparator [INGRESS] Transaction created by monitor: in1: 000000e4, in2: 00000008, op: 0, result: 00000000
# UVM_INFO my_comparator.svh(45) @ 325: test.env.scoreboard.comparator [PREDICTOR] Transaction created by PREDICTOR: in1: 000000e4, in2: 00000008, op: 0, result: 00000000
# UVM_INFO my_comparator.svh(48) @ 325: test.env.scoreboard.comparator [SCOREBOARD] Matched result
# 
# UVM_INFO my_monitor.svh(60) @ 335: test.env.agent.monitor [MONITOR] Transaction generated by monitor - in1: 00000000000000000000000011000010, in2: 00000000000000000000000010100111, op: 0, result: = 00000000000000000000000010000010
# UVM_INFO my_comparator.svh(43) @ 335: test.env.scoreboard.comparator [INGRESS] Transaction created by monitor: in1: 000000c2, in2: 000000a7, op: 0, result: 00000082
# UVM_INFO my_comparator.svh(45) @ 335: test.env.scoreboard.comparator [PREDICTOR] Transaction created by PREDICTOR: in1: 000000c2, in2: 000000a7, op: 0, result: 00000082
# UVM_INFO my_comparator.svh(48) @ 335: test.env.scoreboard.comparator [SCOREBOARD] Matched result
# 
# UVM_INFO my_monitor.svh(60) @ 345: test.env.agent.monitor [MONITOR] Transaction generated by monitor - in1: 00000000000000000000000011111101, in2: 00000000000000000000000001110001, op: 2, result: = 00000000000000000000000101101110
# UVM_INFO my_comparator.svh(43) @ 345: test.env.scoreboard.comparator [INGRESS] Transaction created by monitor: in1: 000000fd, in2: 00000071, op: 2, result: 0000016e
# UVM_INFO my_comparator.svh(45) @ 345: test.env.scoreboard.comparator [PREDICTOR] Transaction created by PREDICTOR: in1: 000000fd, in2: 00000071, op: 2, result: 0000016e
# UVM_INFO my_comparator.svh(48) @ 345: test.env.scoreboard.comparator [SCOREBOARD] Matched result
# 
